…
``` r
read_bds(fn)
```

    ## <bdsreader>
    ## $psn:
    ##   id   name src  dnr    sex gad ga smo   bw hgtm hgtf agem blbf blbm eduf edum
    ## 1 -1 Anne S   0 <NA> female 283 40   0 3300  172  183   NA   NA   NA   NA   NA
    ##   par
    ## 1  NA
    ## 
    ## $xyz:
    ## # A tibble: 58 × 8
    ##       age xname yname zname zref                       x     y     z
    ##     <dbl> <chr> <chr> <chr> <chr>                  <dbl> <dbl> <dbl>
    ##  1 0      age   hgt   hgt_z nl_1997_hgt_female_nl 0       51   0.052
    ##  2 0.0986 age   hgt   hgt_z nl_1997_hgt_female_nl 0.0986  54.7 0.145
    ##  3 0.137  age   hgt   hgt_z nl_1997_hgt_female_nl 0.137   56   0.114
    ##  4 0.233  age   hgt   hgt_z nl_1997_hgt_female_nl 0.233   59.5 0.206
    ##  5 0.501  age   hgt   hgt_z nl_1997_hgt_female_nl 0.501   68   0.661
    ##  6 0.788  age   hgt   hgt_z nl_1997_hgt_female_nl 0.788   73   0.498
    ##  7 0.961  age   hgt   hgt_z nl_1997_hgt_female_nl 0.961   75.5 0.375
    ##  8 1.25   age   hgt   hgt_z nl_1997_hgt_female_nl 1.25    80   0.434
    ##  9 1.51   age   hgt   hgt_z nl_1997_hgt_female_nl 1.51    83.5 0.449
    ## 10 1.97   age   hgt   hgt_z nl_1997_hgt_female_nl 1.97    89.5 0.731
    ## # ℹ 48 more rows
